module girls

go 1.16

require (
	github.com/felixge/httpsnoop v1.0.1 // indirect
	github.com/go-mail/mail/v2 v2.3.0 // indirect
	github.com/julienschmidt/httprouter v1.3.0 // indirect
	github.com/lib/pq v1.10.0 // indirect
	golang.org/x/crypto v0.0.0-20210616213533-5ff15b29337e // indirect
	golang.org/x/time v0.0.0-20210611083556-38a9dc6acbc6 // indirect
	gopkg.in/alexcesaro/quotedprintable.v3 v3.0.0-20150716171945-2caba252f4dc // indirect
)
